Strings – COMP/STAT112 Notebook
…
courses |>
  group_by(time) |>
  summarise(daily_schedule = n()) |>
  arrange(desc(daily_schedule))

# A tibble: 55 × 2
   time             daily_schedule
   <chr>                     <int>
 1 9:40 - 11:10 am              78
 2 10:50 - 11:50 am             77
 3 9:40 - 10:40 am              74
 4 1:10 - 2:10 pm               69
 5 3:00 - 4:30 pm               65
 6 1:20 - 2:50 pm               63
 7 2:20 - 3:20 pm               48
 8 3:30 - 4:30 pm               39
 9 12:00 - 1:00 pm              38
10 7:00 - 10:00 pm              36
# ℹ 45 more rows
…
