Wrangling – COMP/STAT112 Notebook
…
# What does this do?
elections_small |>
  summarize(median_repub = median(repub_pct_20), total_votes = sum(total_votes_20))

  median_repub total_votes
1        68.29   157949293

Exercise 8: summarize + group_by demo

elections_small |>
  group_by(state_name)

# A tibble: 3,109 × 7
# Groups:   state_name [50]
   state_name county_name  total_votes_20 repub_pct_20 dem_pct_20 total_votes_16
   <chr>      <chr>                 <int>        <dbl>      <dbl>          <int>
 1 Alabama    Autauga Cou…          27770         71.4      27.0           24661
 2 Alabama    Baldwin Cou…         109679         76.2      22.4           94090
 3 Alabama    Barbour Cou…          10518         53.4      45.8           10390
 4 Alabama    Bibb County            9595         78.4      20.7            8748
 5 Alabama    Blount Coun…          27588         89.6       9.57          25384
 6 Alabama    Bullock Cou…           4613         24.8      74.7            4701
 7 Alabama    Butler Coun…           9488         57.5      41.8            8685
 8 Alabama    Calhoun Cou…          50983         68.8      29.8           47376
 9 Alabama    Chambers Co…          15284         57.3      41.6           13778
10 Alabama    Cherokee Co…          12301         86.0      13.2           10503
# ℹ 3,099 more rows
# ℹ 1 more variable: dem_pct_16 <dbl>
…
[1] "data.frame"

elections_small |>
  group_by(state_name) |>
  class()

[1] "grouped_df" "tbl_df"     "tbl"        "data.frame"

# What does this do?
# (What if we didn't use group_by?)
elections_small |>
  group_by(state_name) |>
  summarize(median_repub = median(repub_pct_20), total_votes = sum(total_votes_20))

# A tibble: 50 × 3
   state_name           median_repub total_votes
   <chr>                       <dbl>       <int>
 1 Alabama                      70.6     2323304
 2 Arizona                      57.9     3387326
 3 Arkansas                     72.1     1219069
 4 California                   44.8    17495906
 5 Colorado                     56.2     3256953
 6 Connecticut                  41.0     1824280
 7 Delaware                     47.1      504010
 8 District of Columbia          5.4      344356
 9 Florida                      64.6    11067456
10 Georgia                      68       4997716
# ℹ 40 more rows

Exercise 9: DIY

# Sort the *states* from the most to least total votes cast in 2020
elections_small |>
  group_by(state_name) |>
  summarize(median_repub = median(repub_pct_20), total_votes = sum(total_votes_20)) |>
  arrange(desc(total_votes))

# A tibble: 50 × 3
   state_name     median_repub total_votes
   <chr>                 <dbl>       <int>
 1 California             44.8    17495906
 2 Texas                  78.6    11317911
 3 Florida                64.6    11067456
 4 New York               53.7     8616205
 5 Pennsylvania           66.9     6925255
 6 Illinois               68.8     6038850
 7 Ohio                   70.1     5922202
 8 Michigan               62.1     5539302
 9 North Carolina         59.8     5524801
10 Georgia                68       4997716
# ℹ 40 more rows

# In 2020, what were the total number of votes for the Democratic candidate and the total number of votes for the Republican candidate in each *state*?
elections_small |>
  mutate(
    repub_votes = round(total_votes_20 * repub_pct_20/100),
    dem_votes = round(total_votes_20 * dem_pct_20/100)
  ) |>
  group_by(state_name) |>
  summarise(total_dem = sum(dem_votes), total_repub = sum(repub_votes))

# A tibble: 50 × 3
   state_name           total_dem total_repub
   <chr>                    <dbl>       <dbl>
 1 Alabama                 849664     1441155
 2 Arizona                1672127     1661671
 3 Arkansas                423919      760641
 4 California            11109642     6006031
 5 Colorado               1804393     1364627
 6 Connecticut            1080677      715315
 7 Delaware                296274      200601
 8 District of Columbia    317324       18595
 9 Florida                5297131     5668600
10 Georgia                2473661     2461869
# ℹ 40 more rows

# What states did the Democratic candidate win in 2020?
elections_small |>
  mutate(
    repub_votes = round(total_votes_20 * repub_pct_20/100),
    dem_votes = round(total_votes_20 * dem_pct_20/100)
  ) |>
  group_by(state_name) |>
  summarise(total_dem = sum(dem_votes), total_repub = sum(repub_votes)) |>
  mutate(dem_win_20 = total_dem > total_repub)

# A tibble: 50 × 4
   state_name           total_dem total_repub dem_win_20
   <chr>                    <dbl>       <dbl> <lgl>     
 1 Alabama                 849664     1441155 FALSE     
 2 Arizona                1672127     1661671 TRUE      
 3 Arkansas                423919      760641 FALSE     
 4 California            11109642     6006031 TRUE      
 5 Colorado               1804393     1364627 TRUE      
 6 Connecticut            1080677      715315 TRUE      
 7 Delaware                296274      200601 TRUE      
 8 District of Columbia    317324       18595 TRUE      
 9 Florida                5297131     5668600 FALSE     
10 Georgia                2473661     2461869 TRUE      
# ℹ 40 more rows
…
